[
  {
    "date": "Sep 27, 2021 at 22:28:53",
    "temperature": 69.8
  },
  {
    "date": "Oct 4, 2021 at 10:57:00",
    "temperature": 66.2
  },
  {
    "date": "Oct 4, 2021 at 10:58:26",
    "temperature": 0
  },
  {
    "date": "Oct 4, 2021 at 10:59:37",
    "temperature": 0
  },
  {
    "date": "Oct 4, 2021 at 11:00:00",
    "temperature": 0
  },
  {
    "date": "Oct 4, 2021 at 11:00:12",
    "temperature": 0
  },
  {
    "date": "Oct 4, 2021 at 11:00:35",
    "temperature": 0
  },
  {
    "date": "Oct 18, 2021 at 07:22:29",
    "temperature": 46.4
  },
  {
    "date": "Nov 30, 2021 at 13:01:32",
    "temperature": 0
  },
  {
    "date": "Dec 15, 2021 at 14:04:37",
    "temperature": 0
  },
  {
    "date": "Dec 15, 2021 at 14:09:09",
    "temperature": 0
  },
  "Nominal",
  "Nominal",
  "Nominal",
  "Nominal - 02432022-131319",
  "Serious - 02592022-164857",
  "Serious - 02592022-165013",
  "Nominal - 03642022-144546",
  "Serious - 03642022-192803",
  "Serious - 03672022-094913",
  "Nominal - 03672022-141913",
  "Serious - 03672022-221210",
  "Nominal - 03672022-233055",
  "Nominal - 03682022-124038",
  "Serious - 03702022-113904",
  "Nominal - 03732022-091759",
  "Fair - 03732022-165254"
]